<?xml version="1.0" encoding="UTF-8" standalone="no"?>
<!-- Created with Inkscape (http://www.inkscape.org/) -->

<svg
   xmlns:dc="http://purl.org/dc/elements/1.1/"
   xmlns:cc="http://creativecommons.org/ns#"
   xmlns:rdf="http://www.w3.org/1999/02/22-rdf-syntax-ns#"
   xmlns:svg="http://www.w3.org/2000/svg"
   xmlns="http://www.w3.org/2000/svg"
   xmlns:sodipodi="http://sodipodi.sourceforge.net/DTD/sodipodi-0.dtd"
   xmlns:inkscape="http://www.inkscape.org/namespaces/inkscape"
   width="500"
   height="250"
   viewBox="0 0 132.29167 66.145835"
   version="1.1"
   id="svg8"
   inkscape:version="0.92.4 5da689c313, 2019-01-14"
   sodipodi:docname="blog-development-cycle.svg"
   inkscape:export-filename="/home/epsi/Documents/SSG/blog-development-cycle.png"
   inkscape:export-xdpi="96"
   inkscape:export-ydpi="96">
  <defs
     id="defs2">
    <filter
       style="color-interpolation-filters:sRGB;"
       inkscape:label="Drop Shadow"
       id="filter1319">
      <feFlood
         flood-opacity="0.498039"
         flood-color="rgb(0,0,0)"
         result="flood"
         id="feFlood1309" />
      <feComposite
         in="flood"
         in2="SourceGraphic"
         operator="in"
         result="composite1"
         id="feComposite1311" />
      <feGaussianBlur
         in="composite1"
         stdDeviation="0.5"
         result="blur"
         id="feGaussianBlur1313" />
      <feOffset
         dx="1"
         dy="1"
         result="offset"
         id="feOffset1315" />
      <feComposite
         in="SourceGraphic"
         in2="offset"
         operator="over"
         result="composite2"
         id="feComposite1317" />
    </filter>
    <filter
       style="color-interpolation-filters:sRGB;"
       inkscape:label="Drop Shadow"
       id="filter1331">
      <feFlood
         flood-opacity="0.498039"
         flood-color="rgb(0,0,0)"
         result="flood"
         id="feFlood1321" />
      <feComposite
         in="flood"
         in2="SourceGraphic"
         operator="in"
         result="composite1"
         id="feComposite1323" />
      <feGaussianBlur
         in="composite1"
         stdDeviation="0.5"
         result="blur"
         id="feGaussianBlur1325" />
      <feOffset
         dx="1"
         dy="1"
         result="offset"
         id="feOffset1327" />
      <feComposite
         in="SourceGraphic"
         in2="offset"
         operator="over"
         result="composite2"
         id="feComposite1329" />
    </filter>
    <filter
       style="color-interpolation-filters:sRGB;"
       inkscape:label="Drop Shadow"
       id="filter1343">
      <feFlood
         flood-opacity="0.498039"
         flood-color="rgb(0,0,0)"
         result="flood"
         id="feFlood1333" />
      <feComposite
         in="flood"
         in2="SourceGraphic"
         operator="in"
         result="composite1"
         id="feComposite1335" />
      <feGaussianBlur
         in="composite1"
         stdDeviation="0.5"
         result="blur"
         id="feGaussianBlur1337" />
      <feOffset
         dx="1"
         dy="1"
         result="offset"
         id="feOffset1339" />
      <feComposite
         in="SourceGraphic"
         in2="offset"
         operator="over"
         result="composite2"
         id="feComposite1341" />
    </filter>
    <filter
       style="color-interpolation-filters:sRGB;"
       inkscape:label="Drop Shadow"
       id="filter1535">
      <feFlood
         flood-opacity="0.498039"
         flood-color="rgb(0,0,0)"
         result="flood"
         id="feFlood1525" />
      <feComposite
         in="flood"
         in2="SourceGraphic"
         operator="in"
         result="composite1"
         id="feComposite1527" />
      <feGaussianBlur
         in="composite1"
         stdDeviation="0.2"
         result="blur"
         id="feGaussianBlur1529" />
      <feOffset
         dx="0.5"
         dy="0.5"
         result="offset"
         id="feOffset1531" />
      <feComposite
         in="SourceGraphic"
         in2="offset"
         operator="over"
         result="composite2"
         id="feComposite1533" />
    </filter>
    <filter
       style="color-interpolation-filters:sRGB;"
       inkscape:label="Drop Shadow"
       id="filter1547">
      <feFlood
         flood-opacity="0.498039"
         flood-color="rgb(0,0,0)"
         result="flood"
         id="feFlood1537" />
      <feComposite
         in="flood"
         in2="SourceGraphic"
         operator="in"
         result="composite1"
         id="feComposite1539" />
      <feGaussianBlur
         in="composite1"
         stdDeviation="0.2"
         result="blur"
         id="feGaussianBlur1541" />
      <feOffset
         dx="0.5"
         dy="0.5"
         result="offset"
         id="feOffset1543" />
      <feComposite
         in="SourceGraphic"
         in2="offset"
         operator="over"
         result="composite2"
         id="feComposite1545" />
    </filter>
    <filter
       style="color-interpolation-filters:sRGB;"
       inkscape:label="Drop Shadow"
       id="filter1559">
      <feFlood
         flood-opacity="0.498039"
         flood-color="rgb(0,0,0)"
         result="flood"
         id="feFlood1549" />
      <feComposite
         in="flood"
         in2="SourceGraphic"
         operator="in"
         result="composite1"
         id="feComposite1551" />
      <feGaussianBlur
         in="composite1"
         stdDeviation="0.2"
         result="blur"
         id="feGaussianBlur1553" />
      <feOffset
         dx="0.5"
         dy="0.5"
         result="offset"
         id="feOffset1555" />
      <feComposite
         in="SourceGraphic"
         in2="offset"
         operator="over"
         result="composite2"
         id="feComposite1557" />
    </filter>
    <filter
       style="color-interpolation-filters:sRGB;"
       inkscape:label="Drop Shadow"
       id="filter1571">
      <feFlood
         flood-opacity="0.498039"
         flood-color="rgb(0,0,0)"
         result="flood"
         id="feFlood1561" />
      <feComposite
         in="flood"
         in2="SourceGraphic"
         operator="in"
         result="composite1"
         id="feComposite1563" />
      <feGaussianBlur
         in="composite1"
         stdDeviation="0.2"
         result="blur"
         id="feGaussianBlur1565" />
      <feOffset
         dx="0.5"
         dy="0.5"
         result="offset"
         id="feOffset1567" />
      <feComposite
         in="SourceGraphic"
         in2="offset"
         operator="over"
         result="composite2"
         id="feComposite1569" />
    </filter>
    <filter
       style="color-interpolation-filters:sRGB;"
       inkscape:label="Drop Shadow"
       id="filter1583">
      <feFlood
         flood-opacity="0.498039"
         flood-color="rgb(0,0,0)"
         result="flood"
         id="feFlood1573" />
      <feComposite
         in="flood"
         in2="SourceGraphic"
         operator="in"
         result="composite1"
         id="feComposite1575" />
      <feGaussianBlur
         in="composite1"
         stdDeviation="0.2"
         result="blur"
         id="feGaussianBlur1577" />
      <feOffset
         dx="0.5"
         dy="0.5"
         result="offset"
         id="feOffset1579" />
      <feComposite
         in="SourceGraphic"
         in2="offset"
         operator="over"
         result="composite2"
         id="feComposite1581" />
    </filter>
  </defs>
  <sodipodi:namedview
     id="base"
     pagecolor="#ffffff"
     bordercolor="#666666"
     borderopacity="1.0"
     inkscape:pageopacity="0.0"
     inkscape:pageshadow="2"
     inkscape:zoom="1.6419019"
     inkscape:cx="267.66244"
     inkscape:cy="125"
     inkscape:document-units="px"
     inkscape:current-layer="g1209"
     showgrid="false"
     units="px"
     inkscape:window-width="1920"
     inkscape:window-height="996"
     inkscape:window-x="0"
     inkscape:window-y="24"
     inkscape:window-maximized="1" />
  <metadata
     id="metadata5">
    <rdf:RDF>
      <cc:Work
         rdf:about="">
        <dc:format>image/svg+xml</dc:format>
        <dc:type
           rdf:resource="http://purl.org/dc/dcmitype/StillImage" />
        <dc:title></dc:title>
      </cc:Work>
    </rdf:RDF>
  </metadata>
  <g
     inkscape:groupmode="layer"
     id="layer2"
     inkscape:label="Background"
     transform="translate(0,-66.145835)"
     sodipodi:insensitive="true">
    <rect
       style="opacity:1;fill:#ffffff;fill-opacity:1;stroke:none;stroke-width:0.26458335;stroke-opacity:1"
       id="rect882"
       width="132.29167"
       height="66.145836"
       x="0"
       y="66.145828" />
  </g>
  <g
     inkscape:groupmode="layer"
     id="layer4"
     inkscape:label="Cycle"
     style="display:inline">
    <g
       transform="translate(0,-230.85416)"
       id="g1195"
       style="filter:url(#filter1343)">
      <circle
         r="15.875"
         style="opacity:1;fill:#ffffff;fill-opacity:0.25098041;stroke:none;stroke-width:0.26458335;stroke-opacity:1"
         id="circle1184"
         cx="28.575001"
         cy="262.60416" />
      <path
         id="path29"
         d="m 28.575001,236.14582 v 10.58334 a 15.875,15.875 0 0 1 15.875,15.875 H 55.033335 A 26.458334,26.458334 0 0 0 28.575001,236.14582 Z"
         style="opacity:1;fill:#90caf9;fill-opacity:1;stroke:none;stroke-width:0.26458335;stroke-opacity:1"
         inkscape:connector-curvature="0" />
      <path
         id="path829"
         d="M 28.575001,236.14582 A 26.458334,26.458334 0 0 0 2.1166667,262.60416 H 12.7 a 15.875,15.875 0 0 1 15.875001,-15.875 z"
         style="opacity:1;fill:#64b5f6;fill-opacity:1;stroke:none;stroke-width:0.26458335;stroke-opacity:1"
         inkscape:connector-curvature="0" />
      <path
         inkscape:connector-curvature="0"
         style="opacity:1;fill:#bbdefb;fill-opacity:1;stroke:none;stroke-width:0.26458335;stroke-opacity:1"
         d="m 28.575001,289.06249 v -10.58334 a 15.875,15.875 0 0 0 15.875,-15.875 h 10.583334 a 26.458334,26.458334 0 0 1 -26.458334,26.45834 z"
         id="path838" />
      <path
         id="rect825"
         d="m 2.1166667,262.60416 a 26.458334,26.458334 0 0 0 26.4583343,26.45833 v 2.64583 l 7.9375,-7.9375 -7.9375,-7.9375 v 2.64584 A 15.875,15.875 0 0 1 12.7,262.60416 Z"
         style="opacity:1;fill:#42a5f5;fill-opacity:1;stroke:none;stroke-width:0.26458335;stroke-opacity:1"
         inkscape:connector-curvature="0" />
    </g>
    <g
       transform="translate(0,-230.85416)"
       id="g1202"
       style="filter:url(#filter1331)">
      <circle
         cy="262.60416"
         cx="65.616669"
         id="circle1186"
         style="opacity:1;fill:#ffffff;fill-opacity:0.25098041;stroke:none;stroke-width:0.26458335;stroke-opacity:1"
         r="15.875" />
      <path
         style="opacity:1;fill:#80deea;fill-opacity:1;stroke:none;stroke-width:0.26458335;stroke-opacity:1"
         d="m 65.616668,236.14582 v 10.58334 a 15.875,15.875 0 0 1 15.875,15.875 H 92.075002 A 26.458334,26.458334 0 0 0 65.616668,236.14582 Z"
         id="path853"
         inkscape:connector-curvature="0" />
      <path
         style="opacity:1;fill:#4dd0e1;fill-opacity:1;stroke:none;stroke-width:0.26458335;stroke-opacity:1"
         d="m 65.616668,236.14582 a 26.458334,26.458334 0 0 0 -26.458334,26.45834 h 10.583334 a 15.875,15.875 0 0 1 15.875,-15.875 z"
         id="path855"
         inkscape:connector-curvature="0" />
      <path
         id="path857"
         d="m 65.616668,289.06249 v -10.58334 a 15.875,15.875 0 0 0 15.875,-15.875 h 10.583334 a 26.458334,26.458334 0 0 1 -26.458334,26.45834 z"
         style="opacity:1;fill:#b2ebf2;fill-opacity:1;stroke:none;stroke-width:0.26458335;stroke-opacity:1"
         inkscape:connector-curvature="0" />
      <path
         style="opacity:1;fill:#26c6da;fill-opacity:1;stroke:none;stroke-width:0.26458335;stroke-opacity:1"
         d="m 39.158334,262.60416 a 26.458334,26.458334 0 0 0 26.458334,26.45833 v 2.64583 l 7.9375,-7.9375 -7.9375,-7.9375 v 2.64584 a 15.875,15.875 0 0 1 -15.875,-15.875 z"
         id="path859"
         inkscape:connector-curvature="0" />
    </g>
    <g
       transform="translate(0,-230.85416)"
       id="g1209"
       style="filter:url(#filter1319)">
      <circle
         r="15.875"
         style="opacity:1;fill:#ffffff;fill-opacity:0.25098041;stroke:none;stroke-width:0.26458335;stroke-opacity:1"
         id="circle1188"
         cx="102.65833"
         cy="262.60416" />
      <path
         inkscape:connector-curvature="0"
         id="path867"
         d="m 102.65833,236.14582 v 10.58334 a 15.875,15.875 0 0 1 15.87501,15.875 h 10.58333 a 26.458334,26.458334 0 0 0 -26.45834,-26.45834 z"
         style="opacity:1;fill:#ef9a9a;fill-opacity:1;stroke:none;stroke-width:0.26458335;stroke-opacity:1" />
      <path
         inkscape:connector-curvature="0"
         id="path869"
         d="m 102.65833,236.14582 a 26.458334,26.458334 0 0 0 -26.458329,26.45834 h 10.583334 a 15.875,15.875 0 0 1 15.874995,-15.875 z"
         style="opacity:1;fill:#e57373;fill-opacity:1;stroke:none;stroke-width:0.26458335;stroke-opacity:1" />
      <path
         inkscape:connector-curvature="0"
         style="opacity:1;fill:#ffcdd2;fill-opacity:1;stroke:none;stroke-width:0.26458335;stroke-opacity:1"
         d="m 102.65833,289.06249 v -10.58334 a 15.875,15.875 0 0 0 15.875,-15.875 h 10.58334 a 26.458334,26.458334 0 0 1 -26.45834,26.45834 z"
         id="path871" />
      <path
         inkscape:connector-curvature="0"
         id="path873"
         d="m 76.200001,262.60416 a 26.458334,26.458334 0 0 0 26.458329,26.45833 v 2.64583 l 7.93751,-7.9375 -7.93751,-7.9375 v 2.64584 a 15.875,15.875 0 0 1 -15.874995,-15.875 z"
         style="opacity:1;fill:#ef5350;fill-opacity:1;stroke:none;stroke-width:0.26458335;stroke-opacity:1" />
    </g>
  </g>
  <g
     inkscape:label="Content"
     inkscape:groupmode="layer"
     id="layer1"
     transform="translate(0,-230.85416)">
    <circle
       r="26.579521"
       cy="191.05255"
       cx="26.314938"
       id="circle10"
       style="opacity:1;fill:#42a5f5;fill-opacity:0.53333285;stroke:none;stroke-width:0.26458335;stroke-opacity:1;filter:url(#filter1535)" />
    <circle
       r="15.947712"
       style="opacity:1;fill:#1e88e5;fill-opacity:0.53333285;stroke:none;stroke-width:0.26458335;stroke-opacity:1;filter:url(#filter1547)"
       id="circle12"
       cx="26.314938"
       cy="191.05255" />
    <text
       xml:space="preserve"
       style="font-style:normal;font-variant:normal;font-weight:bold;font-stretch:normal;font-size:10.63180923px;line-height:1.25;font-family:Oswald;-inkscape-font-specification:'Oswald, Bold';font-variant-ligatures:normal;font-variant-caps:normal;font-variant-numeric:normal;font-feature-settings:normal;text-align:center;letter-spacing:0px;word-spacing:0px;writing-mode:lr-tb;text-anchor:middle;fill:#0d47a1;fill-opacity:1;stroke:none;stroke-width:0.26458335;filter:url(#filter1559)"
       x="28.850895"
       y="267.48944"
       id="text851"><tspan
         sodipodi:role="line"
         id="tspan849"
         x="28.850895"
         y="267.48944"
         style="font-style:normal;font-variant:normal;font-weight:bold;font-stretch:normal;font-size:10.63180923px;font-family:Oswald;-inkscape-font-specification:'Oswald, Bold';font-variant-ligatures:normal;font-variant-caps:normal;font-variant-numeric:normal;font-feature-settings:normal;text-align:center;writing-mode:lr-tb;text-anchor:middle;fill:#0d47a1;stroke-width:0.26458335">CSS</tspan></text>
    <text
       id="text865"
       y="267.48944"
       x="66.062225"
       style="font-style:normal;font-variant:normal;font-weight:bold;font-stretch:normal;font-size:10.63180923px;line-height:1.25;font-family:Oswald;-inkscape-font-specification:'Oswald, Bold';font-variant-ligatures:normal;font-variant-caps:normal;font-variant-numeric:normal;font-feature-settings:normal;text-align:center;letter-spacing:0px;word-spacing:0px;writing-mode:lr-tb;text-anchor:middle;fill:#006064;fill-opacity:1;stroke:none;stroke-width:0.26458335;filter:url(#filter1571)"
       xml:space="preserve"><tspan
         style="font-style:normal;font-variant:normal;font-weight:bold;font-stretch:normal;font-size:10.63180923px;font-family:Oswald;-inkscape-font-specification:'Oswald, Bold';font-variant-ligatures:normal;font-variant-caps:normal;font-variant-numeric:normal;font-feature-settings:normal;text-align:center;writing-mode:lr-tb;text-anchor:middle;fill:#006064;stroke-width:0.26458335"
         y="267.48944"
         x="66.062225"
         id="tspan863"
         sodipodi:role="line">SSG</tspan></text>
    <text
       xml:space="preserve"
       style="font-style:normal;font-variant:normal;font-weight:bold;font-stretch:normal;font-size:10.63180923px;line-height:1.25;font-family:Oswald;-inkscape-font-specification:'Oswald, Bold';font-variant-ligatures:normal;font-variant-caps:normal;font-variant-numeric:normal;font-feature-settings:normal;text-align:center;letter-spacing:0px;word-spacing:0px;writing-mode:lr-tb;text-anchor:middle;fill:#b71c1c;fill-opacity:1;stroke:none;stroke-width:0.26458335;filter:url(#filter1583)"
       x="103.27355"
       y="267.48944"
       id="text879"><tspan
         sodipodi:role="line"
         id="tspan877"
         x="103.27355"
         y="267.48944"
         style="font-style:normal;font-variant:normal;font-weight:bold;font-stretch:normal;font-size:10.63180923px;font-family:Oswald;-inkscape-font-specification:'Oswald, Bold';font-variant-ligatures:normal;font-variant-caps:normal;font-variant-numeric:normal;font-feature-settings:normal;text-align:center;writing-mode:lr-tb;text-anchor:middle;fill:#b71c1c;stroke-width:0.26458335">CI/CD</tspan></text>
  </g>
  <g
     inkscape:groupmode="layer"
     id="layer3"
     inkscape:label="Text" />
</svg>
