<?xml version="1.0" encoding="UTF-8" standalone="no"?>
<!-- Created with Inkscape (http://www.inkscape.org/) -->

<svg
   xmlns:dc="http://purl.org/dc/elements/1.1/"
   xmlns:cc="http://creativecommons.org/ns#"
   xmlns:rdf="http://www.w3.org/1999/02/22-rdf-syntax-ns#"
   xmlns:svg="http://www.w3.org/2000/svg"
   xmlns="http://www.w3.org/2000/svg"
   xmlns:sodipodi="http://sodipodi.sourceforge.net/DTD/sodipodi-0.dtd"
   xmlns:inkscape="http://www.inkscape.org/namespaces/inkscape"
   width="480"
   height="430"
   viewBox="0 0 126.99999 113.77084"
   version="1.1"
   id="svg8"
   inkscape:version="0.92.4 5da689c313, 2019-01-14"
   sodipodi:docname="layout-page.svg"
   inkscape:export-filename="/home/epsi/Documents/layout-page-trans.png"
   inkscape:export-xdpi="96"
   inkscape:export-ydpi="96">
  <defs
     id="defs2" />
  <sodipodi:namedview
     id="base"
     pagecolor="#ffffff"
     bordercolor="#666666"
     borderopacity="1.0"
     inkscape:pageopacity="0.0"
     inkscape:pageshadow="2"
     inkscape:zoom="1.5229167"
     inkscape:cx="4.2681297"
     inkscape:cy="213.7346"
     inkscape:document-units="px"
     inkscape:current-layer="g134"
     showgrid="false"
     units="px"
     inkscape:window-width="1906"
     inkscape:window-height="982"
     inkscape:window-x="0"
     inkscape:window-y="24"
     inkscape:window-maximized="1"
     inkscape:pagecheckerboard="true" />
  <metadata
     id="metadata5">
    <rdf:RDF>
      <cc:Work
         rdf:about="">
        <dc:format>image/svg+xml</dc:format>
        <dc:type
           rdf:resource="http://purl.org/dc/dcmitype/StillImage" />
        <dc:title></dc:title>
      </cc:Work>
    </rdf:RDF>
  </metadata>
  <g
     inkscape:groupmode="layer"
     id="layer2"
     inkscape:label="Background"
     sodipodi:insensitive="true"
     style="display:none"
     transform="translate(0,-13.229166)">
    <rect
       transform="translate(0,-169.99999)"
       style="opacity:1;fill:#ffffff;fill-opacity:1;stroke:none;stroke-width:0.35439876;stroke-miterlimit:4;stroke-dasharray:none;stroke-opacity:1"
       id="rect886"
       width="126.99999"
       height="126.99999"
       x="0"
       y="169.99998" />
  </g>
  <g
     inkscape:label="Content"
     inkscape:groupmode="layer"
     id="layer1"
     transform="translate(0,-183.22915)">
    <g
       id="g108">
      <text
         id="text866"
         y="193.76285"
         x="29.035261"
         style="font-style:normal;font-variant:normal;font-weight:600;font-stretch:normal;font-size:5.29166651px;line-height:1.25;font-family:Raleway;-inkscape-font-specification:'Raleway, Semi-Bold';font-variant-ligatures:normal;font-variant-caps:normal;font-variant-numeric:normal;font-feature-settings:normal;text-align:center;letter-spacing:0px;word-spacing:0px;writing-mode:lr-tb;text-anchor:middle;fill:#ffffff;fill-opacity:1;stroke:none;stroke-width:0.26458332;"
         xml:space="preserve"><tspan
           y="193.76285"
           x="29.035261"
           id="tspan38"
           sodipodi:role="line">mobile screen</tspan></text>
      <rect
         y="196.45831"
         x="10.583329"
         height="42.333332"
         width="37.041668"
         id="rect29"
         style="opacity:1;fill:#42a5f5;fill-opacity:1;stroke:none;stroke-width:0.20827493;stroke-miterlimit:4;stroke-dasharray:none;stroke-opacity:1" />
      <rect
         style="opacity:1;fill:#e3f2fd;fill-opacity:1;stroke:none;stroke-width:0.08349572;stroke-miterlimit:4;stroke-dasharray:none;stroke-opacity:1"
         id="rect840"
         width="31.75"
         height="7.9374995"
         x="13.229163"
         y="222.91664" />
      <rect
         y="199.10414"
         x="13.229163"
         height="2.6458333"
         width="31.75"
         id="rect852"
         style="opacity:1;fill:#e3f2fd;fill-opacity:1;stroke:none;stroke-width:0.04820628;stroke-miterlimit:4;stroke-dasharray:none;stroke-opacity:1" />
      <rect
         style="opacity:1;fill:#e3f2fd;fill-opacity:1;stroke:none;stroke-width:0.04820628;stroke-miterlimit:4;stroke-dasharray:none;stroke-opacity:1"
         id="rect858"
         width="31.75"
         height="2.6458333"
         x="13.229163"
         y="233.49998" />
      <rect
         y="204.3958"
         x="13.229163"
         height="15.874999"
         width="31.75"
         id="rect30"
         style="opacity:1;fill:#e3f2fd;fill-opacity:1;stroke:none;stroke-width:0.11808078;stroke-miterlimit:4;stroke-dasharray:none;stroke-opacity:1" />
      <text
         xml:space="preserve"
         style="font-style:normal;font-variant:normal;font-weight:500;font-stretch:normal;font-size:4.23333311px;line-height:1.25;font-family:Raleway;-inkscape-font-specification:'Raleway, Medium';font-variant-ligatures:normal;font-variant-caps:normal;font-variant-numeric:normal;font-feature-settings:normal;text-align:center;letter-spacing:0px;word-spacing:0px;writing-mode:lr-tb;text-anchor:middle;fill:#000000;fill-opacity:1;stroke:none;stroke-width:0.26458332"
         x="29.035261"
         y="209.64516"
         id="text69"><tspan
           y="209.64516"
           x="29.035261"
           id="tspan71"
           sodipodi:role="line">main</tspan></text>
      <text
         id="text75"
         y="228.16599"
         x="29.035261"
         style="font-style:normal;font-variant:normal;font-weight:500;font-stretch:normal;font-size:4.23333311px;line-height:1.25;font-family:Raleway;-inkscape-font-specification:'Raleway, Medium';font-variant-ligatures:normal;font-variant-caps:normal;font-variant-numeric:normal;font-feature-settings:normal;text-align:center;letter-spacing:0px;word-spacing:0px;writing-mode:lr-tb;text-anchor:middle;fill:#000000;fill-opacity:1;stroke:none;stroke-width:0.26458332"
         xml:space="preserve"><tspan
           id="tspan77"
           sodipodi:role="line"
           x="29.035261"
           y="228.16599">aside</tspan></text>
    </g>
    <g
       id="g121">
      <text
         xml:space="preserve"
         style="font-style:normal;font-variant:normal;font-weight:600;font-stretch:normal;font-size:5.29166651px;line-height:1.25;font-family:Raleway;-inkscape-font-specification:'Raleway, Semi-Bold';font-variant-ligatures:normal;font-variant-caps:normal;font-variant-numeric:normal;font-feature-settings:normal;text-align:center;letter-spacing:0px;word-spacing:0px;writing-mode:lr-tb;text-anchor:middle;fill:#ffffff;fill-opacity:1;stroke:none;stroke-width:0.26458332;"
         x="84.768944"
         y="193.76285"
         id="text870"><tspan
           y="193.76285"
           x="84.768944"
           id="tspan40"
           sodipodi:role="line">tablet screen</tspan></text>
      <rect
         y="196.45831"
         x="52.916664"
         height="42.333332"
         width="63.5"
         id="rect846"
         style="opacity:1;fill:#42a5f5;fill-opacity:1;stroke:none;stroke-width:0.2726959;stroke-miterlimit:4;stroke-dasharray:none;stroke-opacity:1" />
      <rect
         style="opacity:1;fill:#e3f2fd;fill-opacity:1;stroke:none;stroke-width:0.16465579;stroke-miterlimit:4;stroke-dasharray:none;stroke-opacity:1"
         id="rect848"
         width="37.041668"
         height="26.458332"
         x="55.562496"
         y="204.39581" />
      <rect
         y="204.39583"
         x="95.249992"
         height="26.458332"
         width="18.520834"
         id="rect850"
         style="opacity:1;fill:#e3f2fd;fill-opacity:1;stroke:none;stroke-width:0.1164292;stroke-miterlimit:4;stroke-dasharray:none;stroke-opacity:1" />
      <rect
         style="opacity:1;fill:#e3f2fd;fill-opacity:1;stroke:none;stroke-width:0.06527161;stroke-miterlimit:4;stroke-dasharray:none;stroke-opacity:1"
         id="rect854"
         width="58.208332"
         height="2.6458333"
         x="55.562492"
         y="199.10414" />
      <rect
         y="233.49998"
         x="55.562492"
         height="2.6458333"
         width="58.208332"
         id="rect860"
         style="opacity:1;fill:#e3f2fd;fill-opacity:1;stroke:none;stroke-width:0.06527161;stroke-miterlimit:4;stroke-dasharray:none;stroke-opacity:1" />
      <text
         id="text81"
         y="209.64516"
         x="74.072418"
         style="font-style:normal;font-variant:normal;font-weight:500;font-stretch:normal;font-size:4.23333311px;line-height:1.25;font-family:Raleway;-inkscape-font-specification:'Raleway, Medium';font-variant-ligatures:normal;font-variant-caps:normal;font-variant-numeric:normal;font-feature-settings:normal;text-align:center;letter-spacing:0px;word-spacing:0px;writing-mode:lr-tb;text-anchor:middle;fill:#000000;fill-opacity:1;stroke:none;stroke-width:0.26458332"
         xml:space="preserve"><tspan
           sodipodi:role="line"
           id="tspan79"
           x="74.072418"
           y="209.64516">main</tspan></text>
      <text
         xml:space="preserve"
         style="font-style:normal;font-variant:normal;font-weight:500;font-stretch:normal;font-size:4.23333311px;line-height:1.25;font-family:Raleway;-inkscape-font-specification:'Raleway, Medium';font-variant-ligatures:normal;font-variant-caps:normal;font-variant-numeric:normal;font-feature-settings:normal;text-align:center;letter-spacing:0px;word-spacing:0px;writing-mode:lr-tb;text-anchor:middle;fill:#000000;fill-opacity:1;stroke:none;stroke-width:0.26458332"
         x="104.4995"
         y="209.64516"
         id="text85"><tspan
           id="tspan87"
           sodipodi:role="line"
           x="104.4995"
           y="209.64516">aside</tspan></text>
    </g>
    <g
       id="g134">
      <text
         id="text876"
         y="246.67953"
         x="63.619881"
         style="font-style:normal;font-variant:normal;font-weight:600;font-stretch:normal;font-size:5.29166651px;line-height:1.25;font-family:Raleway;-inkscape-font-specification:'Raleway, Semi-Bold';font-variant-ligatures:normal;font-variant-caps:normal;font-variant-numeric:normal;font-feature-settings:normal;text-align:center;letter-spacing:0px;word-spacing:0px;writing-mode:lr-tb;text-anchor:middle;fill:#ffffff;fill-opacity:1;stroke:none;stroke-width:0.26458332;"
         xml:space="preserve"><tspan
           y="246.67953"
           x="63.619881"
           id="tspan42"
           sodipodi:role="line">wide screen</tspan></text>
      <rect
         style="opacity:1;fill:#42a5f5;fill-opacity:1;stroke:none;stroke-width:0.33398288;stroke-miterlimit:4;stroke-dasharray:none;stroke-opacity:1"
         id="rect836"
         width="95.25"
         height="42.333332"
         x="15.874991"
         y="249.37498" />
      <rect
         y="257.3125"
         x="26.458324"
         height="26.458332"
         width="44.979164"
         id="rect842"
         style="opacity:1;fill:#e3f2fd;fill-opacity:1;stroke:none;stroke-width:0.18144184;stroke-miterlimit:4;stroke-dasharray:none;stroke-opacity:1" />
      <rect
         style="opacity:1;fill:#e3f2fd;fill-opacity:1;stroke:none;stroke-width:0.13915952;stroke-miterlimit:4;stroke-dasharray:none;stroke-opacity:1"
         id="rect844"
         width="26.458332"
         height="26.458332"
         x="74.083328"
         y="257.3125" />
      <rect
         y="252.02083"
         x="26.458328"
         height="2.6458333"
         width="74.083328"
         id="rect856"
         style="opacity:1;fill:#e3f2fd;fill-opacity:1;stroke:none;stroke-width:0.07363632;stroke-miterlimit:4;stroke-dasharray:none;stroke-opacity:1" />
      <rect
         style="opacity:1;fill:#e3f2fd;fill-opacity:1;stroke:none;stroke-width:0.07363632;stroke-miterlimit:4;stroke-dasharray:none;stroke-opacity:1"
         id="rect862"
         width="74.083328"
         height="2.6458333"
         x="26.458328"
         y="286.41666" />
      <text
         xml:space="preserve"
         style="font-style:normal;font-variant:normal;font-weight:500;font-stretch:normal;font-size:4.23333311px;line-height:1.25;font-family:Raleway;-inkscape-font-specification:'Raleway, Medium';font-variant-ligatures:normal;font-variant-caps:normal;font-variant-numeric:normal;font-feature-settings:normal;text-align:center;letter-spacing:0px;word-spacing:0px;writing-mode:lr-tb;text-anchor:middle;fill:#000000;fill-opacity:1;stroke:none;stroke-width:0.26458332"
         x="48.936993"
         y="262.56183"
         id="text91"><tspan
           y="262.56183"
           x="48.936993"
           id="tspan89"
           sodipodi:role="line">main</tspan></text>
      <text
         id="text95"
         y="262.56183"
         x="87.307831"
         style="font-style:normal;font-variant:normal;font-weight:500;font-stretch:normal;font-size:4.23333311px;line-height:1.25;font-family:Raleway;-inkscape-font-specification:'Raleway, Medium';font-variant-ligatures:normal;font-variant-caps:normal;font-variant-numeric:normal;font-feature-settings:normal;text-align:center;letter-spacing:0px;word-spacing:0px;writing-mode:lr-tb;text-anchor:middle;fill:#000000;fill-opacity:1;stroke:none;stroke-width:0.26458332"
         xml:space="preserve"><tspan
           y="262.56183"
           x="87.307831"
           sodipodi:role="line"
           id="tspan93">aside</tspan></text>
    </g>
  </g>
</svg>
